<svg width="300" height="200" xmlns="http://www.w3.org/2000/svg">
  <g fill="none" fill-rule="evenodd">
    <path fill="#FFF" d="M0 0h300v200H0z"/>
    <g fill="#767676">
      <path d="M53 28h92v4H53zM53 52h92v4H53zM53 40h92v4H53z"/>
    </g>
    <g fill="#767676">
      <path d="M53 86h58v4H53zM53 110h58v4H53zM53 98h58v4H53z"/>
      <g>
        <path d="M189 86h58v4h-58zM189 110h58v4h-58zM189 98h58v4h-58z"/>
      </g>
      <g>
        <path d="M121 86h58v4h-58zM121 110h58v4h-58zM121 98h58v4h-58z"/>
      </g>
    </g>
    <g fill="#767676">
      <path d="M53 144h41v4H53zM53 168h41v4H53zM53 156h41v4H53zM104 144h41v4h-41zM104 168h41v4h-41zM104 156h41v4h-41z"/>
      <g>
        <path d="M155 144h41v4h-41zM155 168h41v4h-41zM155 156h41v4h-41z"/>
      </g>
      <g>
        <path d="M206 144h41v4h-41zM206 168h41v4h-41zM206 156h41v4h-41z"/>
      </g>
    </g>
    <g fill="#767676">
      <path d="M155 28h92v4h-92zM155 52h92v4h-92zM155 40h92v4h-92z"/>
    </g>
  </g>
</svg>
